…
           unit_desc == "ACRES",
           short_desc == "HOPS - ACRES HARVESTED",
           domain_desc == "TOTAL") %>%
    mutate(Value = as.numeric(Value)) %>%
    dplyr::select(state_name, county_name, year, Value) %>% 
    arrange(state_name, county_name, year) %>%
    pivot_wider(id_cols = c(state_name, county_name), names_from = year,
                values_from = Value) %>%
    # NA are unreported values, not just a rounded zero
    ungroup %>%
    arrange(desc(!!sym(latest_census)), desc(!!sym(prior_census)))
)
```

    ## # A tibble: 28 × 8
    ##    state_name county_name `1997` `2002` `2007` `2012` `2017` `2022`
    ##    <chr>      <chr>        <dbl>  <dbl>  <dbl>  <dbl>  <dbl>  <dbl>
    ##  1 WASHINGTON YAKIMA       27737  16813  18587  16232  29031  32488
    ##  2 OREGON     MARION        7407   4593     NA   4277   7637   7793
    ##  3 OREGON     JACKSON         NA     NA     NA     NA     96      2
    ##  4 OREGON     JOSEPHINE       NA     NA     NA     NA     NA      2
    ##  5 WASHINGTON BENTON        4412   4020   4320     NA   9618     NA
    ##  6 WASHINGTON STEVENS         NA     NA     NA     NA      9     NA
    ##  7 OREGON     BENTON          NA     NA     NA     NA      4     NA
    ##  8 OREGON     DESCHUTES       NA     NA     NA     NA      4     NA
    ##  9 IDAHO      BOUNDARY        NA     NA     NA     NA     NA     NA
    ## 10 IDAHO      CANYON          NA     NA     NA     NA     NA     NA
    ## # ℹ 18 more rows
…
