…
``` r
(cdl_ranks <- 
    cdl_hops_stats %>%
    mutate(rank = row_number(),
           county = gsub(" County", "", county)) %>%
    dplyr::select(-starts_with("state"),
                  -starts_with("county"), -MIN_AC, state, county)
)
```

    ## # A tibble: 95 × 7
    ##    FIPS  MEAN_AC MAX_AC MEAN_GR  rank state county   
    ##    <chr>   <dbl>  <dbl>   <dbl> <int> <chr> <chr>    
    ##  1 53077 31708   50164.  2353.      1 WA    Yakima   
    ##  2 41047  5271.   8008.   270.      2 OR    Marion   
    ##  3 16027  3883.   7564.   417       3 ID    Canyon   
    ##  4 53005  4546.   7435.   343.      4 WA    Benton   
    ##  5 41045   437.   3426.   -24       5 OR    Malheur  
    ##  6 41053   920    1753.    80.5     6 OR    Polk     
    ##  7 53025   317.   1694     49.3     7 WA    Grant    
    ##  8 41005   407.    785.    19.7     8 OR    Clackamas
    ##  9 41071   290.    743.    25.9     9 OR    Yamhill  
    ## 10 53021    71.3   732.    14.5    10 WA    Franklin 
    ## # ℹ 85 more rows
…
