…
```r
# new varieties are not yet established across multiple growers and 
# yields are reported NA
nass_simple %>%
  filter(is.na(Match))
```

```
## # A tibble: 87 × 5
##    Variety            Yield  Year State      Match
##    <chr>              <dbl> <dbl> <chr>      <int>
##  1 HALLERTAUER MAGNUM  1406  2013 Oregon        NA
##  2 HALLERTAUER MAGNUM    NA  2013 Washington    NA
##  3 HALLERTAUER MAGNUM  1077  2014 Oregon        NA
##  4 HALLERTAUER MAGNUM  1572  2015 Oregon        NA
##  5 HALLERTAUER MAGNUM  1255  2015 Washington    NA
##  6 HALLERTAUER MAGNUM  1493  2016 Oregon        NA
##  7 HALLERTAUER MAGNUM    NA  2016 Washington    NA
##  8 HALLERTAUER MAGNUM  1714  2017 Oregon        NA
##  9 HALLERTAUER MAGNUM    NA  2017 Washington    NA
## 10 HALLERTAUER MAGNUM  1284  2018 Oregon        NA
## # ℹ 77 more rows
```
…
```r
# can we find which varieties contribute to state outliers?
tmp <- filter(state_yields_ready, Outlier) %>%
  select(State, Year, Yield) %>%
  left_join(var_yields, by = c("State", "Year"), suffix = c(".pnw", "")) %>%
  filter(!is.na(Yield)) %>%
  mutate(`Outlier` = paste(State, Year))

filter(tmp, Yield > Yield.pnw)
```

```
## # A tibble: 21 × 7
##    State       Year Yield.pnw Variety                Yield Source      Outlier  
##    <chr>      <dbl>     <dbl> <chr>                  <dbl> <chr>       <chr>    
##  1 Washington  2009      2533 Chelan                  2680 HGA 13.pdf  Washingt…
##  2 Washington  2009      2533 Columbus/Tomahawk       2790 HGA 13.pdf  Washingt…
##  3 Washington  2009      2533 Palisade YCR 4          2756 HGA 13.pdf  Washingt…
##  4 Washington  2009      2533 Super Galena            3186 HGA 13.pdf  Washingt…
##  5 Washington  2009      2533 Zeus                    3387 HGA 13.pdf  Washingt…
##  6 Washington  2022      1679 Ahtanum YCR 1           2032 HGA 435.pdf Washingt…
##  7 Washington  2022      1679 Apollo                  2483 HGA 435.pdf Washingt…
##  8 Washington  2022      1679 Bravo                   2161 HGA 435.pdf Washingt…
##  9 Washington  2022      1679 Columbus/Tomahawk/Zeus  2256 HGA 435.pdf Washingt…
## 10 Washington  2022      1679 Ekuanot HBC 366         2153 HGA 435.pdf Washingt…
## # ℹ 11 more rows
```
…
